subject,gait,vel,COT,pot
JC,S,5,5.84,8.12
JC,S,9,5.08,12.69
JC,S,6.5,5.29,9.54
JC,W,3,2.59,2.16
JC,W,4,2.17,2.41
JC,W,5,2.21,3.08
JC,W,6.5,2.45,4.41
JC,R,11,3.91,11.95
JC,R,6.5,3.97,7.16
JC,R,9,3.94,9.85
GH,S,5,5.56,7.72
GH,S,9,4.96,12.39
GH,S,6.5,5.16,9.32
GH,W,3,3.04,2.53
GH,W,4,2.63,2.92
GH,W,6.5,2.76,4.99
GH,W,5,2.24,3.11
GH,R,6.5,4.07,7.35
GH,R,9,4.14,10.36
GH,R,11,3.90,11.91
DG,S,5,5.06,7.03
DG,S,6.5,5.50,9.93
DG,W,3,2.91,2.43
DG,W,4,2.10,2.34
DG,W,5,2.17,3.01
DG,W,6.5,2.66,4.80
DG,R,6.5,3.28,5.92
DG,R,9,3.67,9.17
DG,R,11,3.89,11.89
DG,S,9,4.70,11.74
IS,W,5,2.67,3.71
IS,W,3,2.53,2.11
IS,W,4,2.44,2.71
IS,W,6.5,3.23,5.83
IS,S,5,5.74,7.97
IS,S,6.5,5.45,9.85
IS,R,6.5,4.54,8.20
IS,R,9,3.94,9.86
AA,R,6.5,3.75,6.77
AA,S,5,4.95,6.87
AA,R,9,3.29,8.22
AA,S,6.5,4.22,7.63
AA,S,9,3.79,9.47
AA,R,11,2.62,8.00
WG,R,6.5,4.39,7.93
WG,S,5,6.51,9.04
WG,R,9,4.00,10.01
WG,S,6.5,5.81,10.49
WG,S,9,4.89,12.23
WG,R,11,4.00,12.23
SS,R,6.5,4.55,8.22
SS,S,5,6.41,8.91
SS,R,9,4.22,10.54
SS,S,6.5,6.62,11.96
SS,S,9,4.73,11.82
SS,R,11,3.98,12.15
RI,R,6.5,3.56,6.43
RI,S,5,3.22,4.47
RI,R,9,1.90,4.74
RI,S,6.5,2.97,5.37
RI,S,9,2.63,6.57
RI,R,11,2.69,8.22
PV,R,6.5,4.87,8.79
PV,S,5,5.58,7.76
PV,R,9,3.16,7.91
PV,S,6.5,4.69,8.47
PV,S,9,3.62,9.04
PV,R,11,3.95,12.06
FB,S,5,3.00,4.16
FB,R,9,2.40,6.00
FB,S,6.5,2.90,5.28
FB,S,9,1.82,4.50
FB,R,11,2.86,8.75
FB,R,6.5,3.66,6.61
JV,R,6.5,4.81,8.69
JV,R,9,4.23,10.56
JV,R,11,4.21,12.86
JV,S,5,7.54,10.47
JV,S,6.5,7.28,13.14
JV,S,9,5.80,14.50
FS,R,6.5,4.12,7.44
FS,R,9,3.09,7.72
FS,R,11,3.43,10.49
FS,S,5,4.97,6.90
FS,S,6.5,4.65,8.40
FS,S,9,3.41,8.53
AS,R,6.5,3.39,6.13
AS,R,9,4.34,10.86
AS,R,11,3.44,10.50
AS,S,5,5.47,7.60
AS,S,6.5,5.33,9.63
AS,S,9,4.39,10.97
SY,R,6.5,4.30,7.76
SY,R,9,4.22,10.55
SY,R,11,3.93,12.01
SY,S,5,8.03,11.15
SY,S,6.5,6.09,11.00
SY,S,9,5.32,13.29
